[gd_scene load_steps=3 format=2]

[ext_resource path="res://script/controller/SceneController.gd" type="Script" id=1]
[ext_resource path="res://scene/MainUI.tscn" type="PackedScene" id=2]

[node name="Game" type="Control"]
anchor_right = 1.0
anchor_bottom = 1.0
__meta__ = {
"_edit_use_anchors_": false
}

[node name="SceneController" type="Node" parent="."]
script = ExtResource( 1 )

[node name="MainUI" parent="." instance=ExtResource( 2 )]
